{
    "Sublattices": [
        {
            "Label": "Mo",
            "Position": [
                0.0,
                0.0,
                0.0
            ],
            "Nrows": 3,
            "Ncols": 3,
            "OnsiteReal": [
                0.0,
                0.0,
                0.0,
                0.0,
                1.9999999999999996,
                0.0,
                0.0,
                0.0,
                -1.9999999999999996
            ],
            "OnsiteImag": [
                0.0,
                0.0,
                0.0,
                -0.0,
                0.0,
                0.0,
                -0.0,
                -0.0,
                0.0
            ],
            "Kind": "Plain"
        }
    ],
    "Hoppings": []
}