{
    "Sublattices": [
        {
            "Label": "B",
            "Position": [
                0.0,
                0.07100000232458115,
                0.0
            ],
            "Nrows": 2,
            "Ncols": 2,
            "OnsiteReal": [
                0.5,
                0.0,
                0.0,
                -0.5
            ],
            "OnsiteImag": [
                0.0,
                0.0,
                -0.0,
                0.0
            ],
            "Kind": "Plain"
        },
        {
            "Label": "A",
            "Position": [
                0.0,
                -0.07100000232458115,
                0.0
            ],
            "Nrows": 2,
            "Ncols": 2,
            "OnsiteReal": [
                0.5,
                0.0,
                0.0,
                -0.5
            ],
            "OnsiteImag": [
                0.0,
                0.0,
                -0.0,
                0.0
            ],
            "Kind": "Plain"
        }
    ],
    "Hoppings": []
}