{
    "Hoppings": [
        {
            "Rel_Idx": [
                1,
                0
            ],
            "From": "B",
            "To": "B",
            "Nrows": 1,
            "Ncols": 1,
            "ValsReal": [
                0.0
            ],
            "ValsImag": [
                0.1
            ],
            "Kind": "Plain"
        },
        {
            "Rel_Idx": [
                0,
                -1
            ],
            "From": "B",
            "To": "B",
            "Nrows": 1,
            "Ncols": 1,
            "ValsReal": [
                0.0
            ],
            "ValsImag": [
                0.1
            ],
            "Kind": "Plain"
        },
        {
            "Rel_Idx": [
                -1,
                1
            ],
            "From": "B",
            "To": "B",
            "Nrows": 1,
            "Ncols": 1,
            "ValsReal": [
                0.0
            ],
            "ValsImag": [
                0.1
            ],
            "Kind": "Plain"
        },
        {
            "Rel_Idx": [
                1,
                0
            ],
            "From": "A",
            "To": "A",
            "Nrows": 1,
            "Ncols": 1,
            "ValsReal": [
                -0.0
            ],
            "ValsImag": [
                -0.1
            ],
            "Kind": "Plain"
        },
        {
            "Rel_Idx": [
                0,
                -1
            ],
            "From": "A",
            "To": "A",
            "Nrows": 1,
            "Ncols": 1,
            "ValsReal": [
                -0.0
            ],
            "ValsImag": [
                -0.1
            ],
            "Kind": "Plain"
        },
        {
            "Rel_Idx": [
                -1,
                1
            ],
            "From": "A",
            "To": "A",
            "Nrows": 1,
            "Ncols": 1,
            "ValsReal": [
                -0.0
            ],
            "ValsImag": [
                -0.1
            ],
            "Kind": "Plain"
        },
        {
            "Rel_Idx": [
                0,
                0
            ],
            "From": "A",
            "To": "B",
            "Nrows": 1,
            "Ncols": 1,
            "ValsReal": [
                -1.0
            ],
            "ValsImag": [
                0.0
            ],
            "Kind": "Plain"
        },
        {
            "Rel_Idx": [
                1,
                -1
            ],
            "From": "A",
            "To": "B",
            "Nrows": 1,
            "Ncols": 1,
            "ValsReal": [
                -1.0
            ],
            "ValsImag": [
                0.0
            ],
            "Kind": "Plain"
        },
        {
            "Rel_Idx": [
                0,
                -1
            ],
            "From": "A",
            "To": "B",
            "Nrows": 1,
            "Ncols": 1,
            "ValsReal": [
                -1.0
            ],
            "ValsImag": [
                0.0
            ],
            "Kind": "Plain"
        }
    ]
}